…
``` r
Annual_data3%>% filter(ride_length < 0)
```

    ## # A tibble: 3,802 x 20
    ##    ride_id   ride_type started_at          ended_at            start_station_na~
    ##    <chr>     <chr>     <dttm>              <dttm>              <chr>            
    ##  1 DD903077~ docked_b~ 2020-05-30 16:55:14 2020-05-30 16:54:55 Wentworth Ave & ~
    ##  2 CF73228D~ docked_b~ 2020-05-20 09:44:47 2020-05-20 09:44:19 Clarendon Ave & ~
    ##  3 4244D2EE~ docked_b~ 2020-05-13 03:01:51 2020-05-13 03:00:32 Indiana Ave & 26~
    ##  4 60FE7C6D~ docked_b~ 2020-05-15 21:20:32 2020-05-15 21:20:03 Spaulding Ave & ~
    ##  5 CB5F3B26~ docked_b~ 2020-05-08 06:59:29 2020-05-08 06:58:58 Rush St & Hubbar~
    ##  6 D40633CA~ docked_b~ 2020-05-14 19:41:50 2020-05-14 19:40:02 Western Ave & Di~
    ##  7 369DF9CF~ docked_b~ 2020-05-28 16:53:46 2020-05-28 16:53:27 Western Ave & Di~
    ##  8 BC1D096C~ docked_b~ 2020-05-11 09:19:09 2020-05-11 09:18:37 Broadway & Barry~
    ##  9 B0483582~ docked_b~ 2020-05-19 16:09:59 2020-05-19 16:09:30 Michigan Ave & 1~
    ## 10 7E2349CC~ docked_b~ 2020-05-11 07:10:39 2020-05-11 07:10:06 Wells St & Everg~
    ## # ... with 3,792 more rows, and 15 more variables: start_station_id <chr>,
    ## #   end_station_name <chr>, end_station_id <chr>, membership_type <chr>,
    ## #   start_date <date>, end_date <date>, month_trip <chr>, day_trip <chr>,
    ## #   year_trip <chr>, day_of_week <chr>, month_year <chr>, ride_length <dbl>,
    ## #   start_time <chr>, start_time_hrs <chr>, time_cat <fct>
…
#### Rider type vs number of rides / week/ month

``` r
#calculate number of trips on a given day in a week per month

Ride_cnt_month <- Annual_data3 %>% group_by(day_of_week, month_year, membership_type) %>% summarise(total_trip_per_day = n())
```

    ## `summarise()` has grouped output by 'day_of_week', 'month_year'. You can override using the `.groups` argument.

``` r
Ride_cnt_month
```

    ## # A tibble: 168 x 4
    ## # Groups:   day_of_week, month_year [84]
    ##    day_of_week month_year membership_type total_trip_per_day
    ##    <chr>       <chr>      <chr>                        <int>
    ##  1 Friday      Apr   2021 casual                       22929
    ##  2 Friday      Apr   2021 member                       35795
    ##  3 Friday      Aug   2020 casual                       39240
    ##  4 Friday      Aug   2020 member                       46081
    ##  5 Friday      Dec   2020 casual                        3460
    ##  6 Friday      Dec   2020 member                       12401
    ##  7 Friday      Feb   2021 casual                        1496
    ##  8 Friday      Feb   2021 member                        6594
    ##  9 Friday      Jan   2021 casual                        2838
    ## 10 Friday      Jan   2021 member                       12645
    ## # ... with 158 more rows
…
